…
Start with a `for` loop.

``` r
output = vector("list", length = 100)

for (i in 1:100) {
  
  output[[i]] = sim_mean_sd(samp_size = 30)
  
}

bind_rows(output)
```

    ## # A tibble: 100 x 2
    ##     mean    sd
    ##    <dbl> <dbl>
    ##  1  3.87  3.61
    ##  2  2.43  4.24
    ##  3  2.97  4.25
    ##  4  3.63  4.24
    ##  5  3.41  4.16
    ##  6  3.49  4.25
    ##  7  2.53  5.01
    ##  8  4.44  3.46
    ##  9  3.04  3.71
    ## 10  2.75  3.56
    ## # … with 90 more rows
…
